GFORTRAN module version '6' created from propgen.f90 on Tue Aug 20 11:54:54 2013
MD5:2b7b8efd024acdd9155f86fcc2bfc397 -- If you edit this, you'll get what you deserve.

(() () () () () () () () () () () () () () () () () () () () () () () ()
() () ())

()

()

()

()

()

(2 'combine_prop' 'combine_prop' 'combine_prop' 1 ((MODULE
UNKNOWN-INTENT UNKNOWN-PROC UNKNOWN UNKNOWN 0 0) (UNKNOWN 0 0 0 UNKNOWN
()) 0 0 () () 0 () () () 0 0)
3 'make_type_conv_table' 'combine_prop' 'make_type_conv_table' 1 ((
PROCEDURE UNKNOWN-INTENT MODULE-PROC DECL UNKNOWN 0 0 SUBROUTINE
IMPLICIT_PURE) (UNKNOWN 0 0 0 UNKNOWN ()) 4 0 (5 6 7 8) () 0 () () () 0
0)
9 'organize_levels' 'combine_prop' 'organize_levels' 1 ((PROCEDURE
UNKNOWN-INTENT MODULE-PROC DECL UNKNOWN 0 0 SUBROUTINE) (UNKNOWN 0 0 0
UNKNOWN ()) 10 0 (11 12 13 14 15 16 17 18 19 20) () 0 () () () 0 0)
21 'output_properties' 'combine_prop' 'output_properties' 1 ((PROCEDURE
UNKNOWN-INTENT MODULE-PROC DECL UNKNOWN 0 0 SUBROUTINE) (UNKNOWN 0 0 0
UNKNOWN ()) 22 0 (23 24 25 26 27 28 29 30 31 32 33 34 35 36 37) () 0 ()
() () 0 0)
38 'phasefunc_from_legendre' 'combine_prop' 'phasefunc_from_legendre' 1
((PROCEDURE UNKNOWN-INTENT MODULE-PROC DECL UNKNOWN 0 0 SUBROUTINE
IMPLICIT_PURE) (UNKNOWN 0 0 0 UNKNOWN ()) 39 0 (40 41 42 43) () 0 () ()
() 0 0)
44 'rayleigh_extinct' 'combine_prop' 'rayleigh_extinct' 1 ((PROCEDURE
UNKNOWN-INTENT MODULE-PROC DECL UNKNOWN 0 0 SUBROUTINE IMPLICIT_PURE) (
UNKNOWN 0 0 0 UNKNOWN ()) 45 0 (46 47 48 49 50) () 0 () () () 0 0)
51 'read_particle_file' 'combine_prop' 'read_particle_file' 1 ((
PROCEDURE UNKNOWN-INTENT MODULE-PROC DECL UNKNOWN 0 0 SUBROUTINE) (
UNKNOWN 0 0 0 UNKNOWN ()) 52 0 (53 54 55 56 57 58 59 60 61 62 63 64 65
66) () 0 () () () 0 0)
67 'read_particle_file_size' 'combine_prop' 'read_particle_file_size' 1
((PROCEDURE UNKNOWN-INTENT MODULE-PROC DECL UNKNOWN 0 0 SUBROUTINE) (
UNKNOWN 0 0 0 UNKNOWN ()) 68 0 (69 70 71 72) () 0 () () () 0 0)
73 'read_scat_table' 'combine_prop' 'read_scat_table' 1 ((PROCEDURE
UNKNOWN-INTENT MODULE-PROC DECL UNKNOWN 0 0 SUBROUTINE ALWAYS_EXPLICIT)
(UNKNOWN 0 0 0 UNKNOWN ()) 74 0 (75 76 77 78 79 80 81 82) () 0 () () ()
0 0)
83 'read_scat_table_size' 'combine_prop' 'read_scat_table_size' 1 ((
PROCEDURE UNKNOWN-INTENT MODULE-PROC DECL UNKNOWN 0 0 SUBROUTINE) (
UNKNOWN 0 0 0 UNKNOWN ()) 84 0 (85 86 87 88 89) () 0 () () () 0 0)
90 'ssort' 'combine_prop' 'ssort' 1 ((PROCEDURE UNKNOWN-INTENT
MODULE-PROC DECL UNKNOWN 0 0 SUBROUTINE) (UNKNOWN 0 0 0 UNKNOWN ()) 91 0
(92 93 94 95) () 0 () () () 0 0)
96 'user_input' 'combine_prop' 'user_input' 1 ((PROCEDURE UNKNOWN-INTENT
MODULE-PROC DECL UNKNOWN 0 0 SUBROUTINE ALWAYS_EXPLICIT) (UNKNOWN 0 0 0
UNKNOWN ()) 97 0 (98 99 100 101 102 103 104 105 106 107 108 109) () 0 ()
() () 0 0)
98 'nscattab' '' 'nscattab' 97 ((VARIABLE OUT UNKNOWN-PROC UNKNOWN
UNKNOWN 0 0 DUMMY) (INTEGER 4 0 0 INTEGER ()) 0 0 () () 0 () () () 0 0)
99 'scattabfiles' '' 'scattabfiles' 97 ((VARIABLE UNKNOWN-INTENT
UNKNOWN-PROC UNKNOWN UNKNOWN 0 0 DIMENSION POINTER DUMMY) (CHARACTER 1 0
0 CHARACTER ((CONSTANT (INTEGER 4 0 0 INTEGER ()) 0 '80'))) 0 0 () (1 0
DEFERRED () ()) 0 () () () 0 0)
100 'scatnums' '' 'scatnums' 97 ((VARIABLE UNKNOWN-INTENT UNKNOWN-PROC
UNKNOWN UNKNOWN 0 0 DIMENSION POINTER DUMMY) (INTEGER 4 0 0 INTEGER ())
0 0 () (1 0 DEFERRED () ()) 0 () () () 0 0)
101 'parfile' '' 'parfile' 97 ((VARIABLE OUT UNKNOWN-PROC UNKNOWN
UNKNOWN 0 0 DUMMY) (CHARACTER 1 0 0 CHARACTER (())) 0 0 () () 0 () () ()
0 0)
102 'maxnewphase' '' 'maxnewphase' 97 ((VARIABLE OUT UNKNOWN-PROC
UNKNOWN UNKNOWN 0 0 DUMMY) (INTEGER 4 0 0 INTEGER ()) 0 0 () () 0 () ()
() 0 0)
103 'asymtol' '' 'asymtol' 97 ((VARIABLE OUT UNKNOWN-PROC UNKNOWN
UNKNOWN 0 0 DUMMY) (REAL 4 0 0 REAL ()) 0 0 () () 0 () () () 0 0)
104 'fracphasetol' '' 'fracphasetol' 97 ((VARIABLE OUT UNKNOWN-PROC
UNKNOWN UNKNOWN 0 0 DUMMY) (REAL 4 0 0 REAL ()) 0 0 () () 0 () () () 0 0)
105 'raylcoef' '' 'raylcoef' 97 ((VARIABLE OUT UNKNOWN-PROC UNKNOWN
UNKNOWN 0 0 DUMMY) (REAL 4 0 0 REAL ()) 0 0 () () 0 () () () 0 0)
106 'nzo' '' 'nzo' 97 ((VARIABLE OUT UNKNOWN-PROC UNKNOWN UNKNOWN 0 0
DUMMY) (INTEGER 4 0 0 INTEGER ()) 0 0 () () 0 () () () 0 0)
107 'zother' '' 'zother' 97 ((VARIABLE UNKNOWN-INTENT UNKNOWN-PROC
UNKNOWN UNKNOWN 0 0 DIMENSION POINTER DUMMY) (REAL 4 0 0 REAL ()) 0 0 ()
(1 0 DEFERRED () ()) 0 () () () 0 0)
108 'tempother' '' 'tempother' 97 ((VARIABLE UNKNOWN-INTENT UNKNOWN-PROC
UNKNOWN UNKNOWN 0 0 DIMENSION POINTER DUMMY) (REAL 4 0 0 REAL ()) 0 0 ()
(1 0 DEFERRED () ()) 0 () () () 0 0)
109 'propfile' '' 'propfile' 97 ((VARIABLE OUT UNKNOWN-PROC UNKNOWN
UNKNOWN 0 0 DUMMY) (CHARACTER 1 0 0 CHARACTER (())) 0 0 () () 0 () () ()
0 0)
85 'scattabfile' '' 'scattabfile' 84 ((VARIABLE IN UNKNOWN-PROC UNKNOWN
UNKNOWN 0 0 DUMMY) (CHARACTER 1 0 0 CHARACTER (())) 0 0 () () 0 () () ()
0 0)
86 'wavelen1' '' 'wavelen1' 84 ((VARIABLE OUT UNKNOWN-PROC UNKNOWN
UNKNOWN 0 0 DUMMY) (REAL 4 0 0 REAL ()) 0 0 () () 0 () () () 0 0)
87 'wavelen2' '' 'wavelen2' 84 ((VARIABLE OUT UNKNOWN-PROC UNKNOWN
UNKNOWN 0 0 DUMMY) (REAL 4 0 0 REAL ()) 0 0 () () 0 () () () 0 0)
88 'nretab' '' 'nretab' 84 ((VARIABLE OUT UNKNOWN-PROC UNKNOWN UNKNOWN 0
0 DUMMY) (INTEGER 4 0 0 INTEGER ()) 0 0 () () 0 () () () 0 0)
89 'maxnleg' '' 'maxnleg' 84 ((VARIABLE OUT UNKNOWN-PROC UNKNOWN UNKNOWN
0 0 DUMMY) (INTEGER 4 0 0 INTEGER ()) 0 0 () () 0 () () () 0 0)
75 'scattabfile' '' 'scattabfile' 74 ((VARIABLE IN UNKNOWN-PROC UNKNOWN
UNKNOWN 0 0 DUMMY) (CHARACTER 1 0 0 CHARACTER (())) 0 0 () () 0 () () ()
0 0)
76 'nretab' '' 'nretab' 74 ((VARIABLE IN UNKNOWN-PROC UNKNOWN UNKNOWN 0
0 DUMMY) (INTEGER 4 0 0 INTEGER ()) 0 0 () () 0 () () () 0 0)
77 'retab' '' 'retab' 74 ((VARIABLE OUT UNKNOWN-PROC UNKNOWN UNKNOWN 0 0
DIMENSION DUMMY) (REAL 4 0 0 REAL ()) 0 0 () (1 0 EXPLICIT (CONSTANT (
INTEGER 4 0 0 INTEGER ()) 0 '1') (VARIABLE (INTEGER 4 0 0 INTEGER ()) 0
76 ())) 0 () () () 0 0)
78 'extinct' '' 'extinct' 74 ((VARIABLE OUT UNKNOWN-PROC UNKNOWN UNKNOWN
0 0 DIMENSION DUMMY) (REAL 4 0 0 REAL ()) 0 0 () (1 0 EXPLICIT (
CONSTANT (INTEGER 4 0 0 INTEGER ()) 0 '1') (VARIABLE (INTEGER 4 0 0
INTEGER ()) 0 76 ())) 0 () () () 0 0)
79 'ssalb' '' 'ssalb' 74 ((VARIABLE OUT UNKNOWN-PROC UNKNOWN UNKNOWN 0 0
DIMENSION DUMMY) (REAL 4 0 0 REAL ()) 0 0 () (1 0 EXPLICIT (CONSTANT (
INTEGER 4 0 0 INTEGER ()) 0 '1') (VARIABLE (INTEGER 4 0 0 INTEGER ()) 0
76 ())) 0 () () () 0 0)
80 'maxleg' '' 'maxleg' 74 ((VARIABLE IN UNKNOWN-PROC UNKNOWN UNKNOWN 0
0 DUMMY) (INTEGER 4 0 0 INTEGER ()) 0 0 () () 0 () () () 0 0)
81 'nleg' '' 'nleg' 74 ((VARIABLE OUT UNKNOWN-PROC UNKNOWN UNKNOWN 0 0
DIMENSION DUMMY) (INTEGER 4 0 0 INTEGER ()) 0 0 () (1 0 ASSUMED_SHAPE (
CONSTANT (INTEGER 4 0 0 INTEGER ()) 0 '1') ()) 0 () () () 0 0)
82 'legcoef' '' 'legcoef' 74 ((VARIABLE OUT UNKNOWN-PROC UNKNOWN UNKNOWN
0 0 DIMENSION DUMMY) (REAL 4 0 0 REAL ()) 0 0 () (2 0 EXPLICIT (
CONSTANT (INTEGER 4 0 0 INTEGER ()) 0 '0') (VARIABLE (INTEGER 4 0 0
INTEGER ()) 0 80 ()) (CONSTANT (INTEGER 4 0 0 INTEGER ()) 0 '1') (
VARIABLE (INTEGER 4 0 0 INTEGER ()) 0 76 ())) 0 () () () 0 0)
5 'ntypes' '' 'ntypes' 4 ((VARIABLE IN UNKNOWN-PROC UNKNOWN UNKNOWN 0 0
DUMMY) (INTEGER 4 0 0 INTEGER ()) 0 0 () () 0 () () () 0 0)
6 'partypes' '' 'partypes' 4 ((VARIABLE IN UNKNOWN-PROC UNKNOWN UNKNOWN
0 0 DIMENSION DUMMY) (INTEGER 4 0 0 INTEGER ()) 0 0 () (1 0 EXPLICIT (
CONSTANT (INTEGER 4 0 0 INTEGER ()) 0 '1') (VARIABLE (INTEGER 4 0 0
INTEGER ()) 0 5 ())) 0 () () () 0 0)
7 'maxtypenum' '' 'maxtypenum' 4 ((VARIABLE IN UNKNOWN-PROC UNKNOWN
UNKNOWN 0 0 DUMMY) (INTEGER 4 0 0 INTEGER ()) 0 0 () () 0 () () () 0 0)
8 'typeconv' '' 'typeconv' 4 ((VARIABLE OUT UNKNOWN-PROC UNKNOWN UNKNOWN
0 0 DIMENSION DUMMY) (INTEGER 4 0 0 INTEGER ()) 0 0 () (1 0 EXPLICIT (
CONSTANT (INTEGER 4 0 0 INTEGER ()) 0 '0') (VARIABLE (INTEGER 4 0 0
INTEGER ()) 0 7 ())) 0 () () () 0 0)
69 'parfile' '' 'parfile' 68 ((VARIABLE IN UNKNOWN-PROC UNKNOWN UNKNOWN
0 0 DUMMY) (CHARACTER 1 0 0 CHARACTER (())) 0 0 () () 0 () () () 0 0)
70 'nx' '' 'nx' 68 ((VARIABLE OUT UNKNOWN-PROC UNKNOWN UNKNOWN 0 0 DUMMY)
(INTEGER 4 0 0 INTEGER ()) 0 0 () () 0 () () () 0 0)
71 'ny' '' 'ny' 68 ((VARIABLE OUT UNKNOWN-PROC UNKNOWN UNKNOWN 0 0 DUMMY)
(INTEGER 4 0 0 INTEGER ()) 0 0 () () 0 () () () 0 0)
72 'nzp' '' 'nzp' 68 ((VARIABLE OUT UNKNOWN-PROC UNKNOWN UNKNOWN 0 0
DUMMY) (INTEGER 4 0 0 INTEGER ()) 0 0 () () 0 () () () 0 0)
53 'parfile' '' 'parfile' 52 ((VARIABLE IN UNKNOWN-PROC UNKNOWN UNKNOWN
0 0 DUMMY) (CHARACTER 1 0 0 CHARACTER (())) 0 0 () () 0 () () () 0 0)
54 'nx' '' 'nx' 52 ((VARIABLE IN UNKNOWN-PROC UNKNOWN UNKNOWN 0 0 DUMMY)
(INTEGER 4 0 0 INTEGER ()) 0 0 () () 0 () () () 0 0)
55 'ny' '' 'ny' 52 ((VARIABLE IN UNKNOWN-PROC UNKNOWN UNKNOWN 0 0 DUMMY)
(INTEGER 4 0 0 INTEGER ()) 0 0 () () 0 () () () 0 0)
56 'nzp' '' 'nzp' 52 ((VARIABLE IN UNKNOWN-PROC UNKNOWN UNKNOWN 0 0
DUMMY) (INTEGER 4 0 0 INTEGER ()) 0 0 () () 0 () () () 0 0)
57 'nscattab' '' 'nscattab' 52 ((VARIABLE IN UNKNOWN-PROC UNKNOWN
UNKNOWN 0 0 DUMMY) (INTEGER 4 0 0 INTEGER ()) 0 0 () () 0 () () () 0 0)
58 'partypes' '' 'partypes' 52 ((VARIABLE IN UNKNOWN-PROC UNKNOWN
UNKNOWN 0 0 DIMENSION DUMMY) (INTEGER 4 0 0 INTEGER ()) 0 0 () (1 0
EXPLICIT (CONSTANT (INTEGER 4 0 0 INTEGER ()) 0 '1') (VARIABLE (INTEGER
4 0 0 INTEGER ()) 0 57 ())) 0 () () () 0 0)
59 'delx' '' 'delx' 52 ((VARIABLE OUT UNKNOWN-PROC UNKNOWN UNKNOWN 0 0
DUMMY) (REAL 4 0 0 REAL ()) 0 0 () () 0 () () () 0 0)
60 'dely' '' 'dely' 52 ((VARIABLE OUT UNKNOWN-PROC UNKNOWN UNKNOWN 0 0
DUMMY) (REAL 4 0 0 REAL ()) 0 0 () () 0 () () () 0 0)
61 'zpar' '' 'zpar' 52 ((VARIABLE OUT UNKNOWN-PROC UNKNOWN UNKNOWN 0 0
DIMENSION DUMMY) (REAL 4 0 0 REAL ()) 0 0 () (1 0 EXPLICIT (CONSTANT (
INTEGER 4 0 0 INTEGER ()) 0 '1') (VARIABLE (INTEGER 4 0 0 INTEGER ()) 0
56 ())) 0 () () () 0 0)
62 'temppar' '' 'temppar' 52 ((VARIABLE OUT UNKNOWN-PROC UNKNOWN UNKNOWN
0 0 DIMENSION DUMMY) (REAL 4 0 0 REAL ()) 0 0 () (1 0 EXPLICIT (
CONSTANT (INTEGER 4 0 0 INTEGER ()) 0 '1') (VARIABLE (INTEGER 4 0 0
INTEGER ()) 0 56 ())) 0 () () () 0 0)
63 'ncomp' '' 'ncomp' 52 ((VARIABLE OUT UNKNOWN-PROC UNKNOWN UNKNOWN 0 0
DIMENSION DUMMY) (INTEGER 4 0 0 INTEGER ()) 0 0 () (3 0 EXPLICIT (
CONSTANT (INTEGER 4 0 0 INTEGER ()) 0 '1') (VARIABLE (INTEGER 4 0 0
INTEGER ()) 0 56 ()) (CONSTANT (INTEGER 4 0 0 INTEGER ()) 0 '1') (
VARIABLE (INTEGER 4 0 0 INTEGER ()) 0 55 ()) (CONSTANT (INTEGER 4 0 0
INTEGER ()) 0 '1') (VARIABLE (INTEGER 4 0 0 INTEGER ()) 0 54 ())) 0 () ()
() 0 0)
64 'ptype' '' 'ptype' 52 ((VARIABLE OUT UNKNOWN-PROC UNKNOWN UNKNOWN 0 0
DIMENSION DUMMY) (INTEGER 4 0 0 INTEGER ()) 0 0 () (4 0 EXPLICIT (
CONSTANT (INTEGER 4 0 0 INTEGER ()) 0 '1') (VARIABLE (INTEGER 4 0 0
INTEGER ()) 0 57 ()) (CONSTANT (INTEGER 4 0 0 INTEGER ()) 0 '1') (
VARIABLE (INTEGER 4 0 0 INTEGER ()) 0 56 ()) (CONSTANT (INTEGER 4 0 0
INTEGER ()) 0 '1') (VARIABLE (INTEGER 4 0 0 INTEGER ()) 0 55 ()) (
CONSTANT (INTEGER 4 0 0 INTEGER ()) 0 '1') (VARIABLE (INTEGER 4 0 0
INTEGER ()) 0 54 ())) 0 () () () 0 0)
65 'masscont' '' 'masscont' 52 ((VARIABLE OUT UNKNOWN-PROC UNKNOWN
UNKNOWN 0 0 DIMENSION DUMMY) (REAL 4 0 0 REAL ()) 0 0 () (4 0 EXPLICIT (
CONSTANT (INTEGER 4 0 0 INTEGER ()) 0 '1') (VARIABLE (INTEGER 4 0 0
INTEGER ()) 0 57 ()) (CONSTANT (INTEGER 4 0 0 INTEGER ()) 0 '1') (
VARIABLE (INTEGER 4 0 0 INTEGER ()) 0 56 ()) (CONSTANT (INTEGER 4 0 0
INTEGER ()) 0 '1') (VARIABLE (INTEGER 4 0 0 INTEGER ()) 0 55 ()) (
CONSTANT (INTEGER 4 0 0 INTEGER ()) 0 '1') (VARIABLE (INTEGER 4 0 0
INTEGER ()) 0 54 ())) 0 () () () 0 0)
66 'reff' '' 'reff' 52 ((VARIABLE OUT UNKNOWN-PROC UNKNOWN UNKNOWN 0 0
DIMENSION DUMMY) (REAL 4 0 0 REAL ()) 0 0 () (4 0 EXPLICIT (CONSTANT (
INTEGER 4 0 0 INTEGER ()) 0 '1') (VARIABLE (INTEGER 4 0 0 INTEGER ()) 0
57 ()) (CONSTANT (INTEGER 4 0 0 INTEGER ()) 0 '1') (VARIABLE (INTEGER 4
0 0 INTEGER ()) 0 56 ()) (CONSTANT (INTEGER 4 0 0 INTEGER ()) 0 '1') (
VARIABLE (INTEGER 4 0 0 INTEGER ()) 0 55 ()) (CONSTANT (INTEGER 4 0 0
INTEGER ()) 0 '1') (VARIABLE (INTEGER 4 0 0 INTEGER ()) 0 54 ())) 0 () ()
() 0 0)
11 'nzp' '' 'nzp' 10 ((VARIABLE IN UNKNOWN-PROC UNKNOWN UNKNOWN 0 0
DUMMY) (INTEGER 4 0 0 INTEGER ()) 0 0 () () 0 () () () 0 0)
12 'zpar' '' 'zpar' 10 ((VARIABLE IN UNKNOWN-PROC UNKNOWN UNKNOWN 0 0
DIMENSION DUMMY) (REAL 4 0 0 REAL ()) 0 0 () (1 0 EXPLICIT (CONSTANT (
INTEGER 4 0 0 INTEGER ()) 0 '1') (VARIABLE (INTEGER 4 0 0 INTEGER ()) 0
11 ())) 0 () () () 0 0)
13 'temppar' '' 'temppar' 10 ((VARIABLE IN UNKNOWN-PROC UNKNOWN UNKNOWN
0 0 DIMENSION DUMMY) (REAL 4 0 0 REAL ()) 0 0 () (1 0 EXPLICIT (
CONSTANT (INTEGER 4 0 0 INTEGER ()) 0 '1') (VARIABLE (INTEGER 4 0 0
INTEGER ()) 0 11 ())) 0 () () () 0 0)
14 'nzo' '' 'nzo' 10 ((VARIABLE IN UNKNOWN-PROC UNKNOWN UNKNOWN 0 0
DUMMY) (INTEGER 4 0 0 INTEGER ()) 0 0 () () 0 () () () 0 0)
15 'zother' '' 'zother' 10 ((VARIABLE IN UNKNOWN-PROC UNKNOWN UNKNOWN 0
0 DIMENSION DUMMY) (REAL 4 0 0 REAL ()) 0 0 () (1 0 EXPLICIT (CONSTANT (
INTEGER 4 0 0 INTEGER ()) 0 '1') (VARIABLE (INTEGER 4 0 0 INTEGER ()) 0
14 ())) 0 () () () 0 0)
16 'tempother' '' 'tempother' 10 ((VARIABLE IN UNKNOWN-PROC UNKNOWN
UNKNOWN 0 0 DIMENSION DUMMY) (REAL 4 0 0 REAL ()) 0 0 () (1 0 EXPLICIT (
CONSTANT (INTEGER 4 0 0 INTEGER ()) 0 '1') (VARIABLE (INTEGER 4 0 0
INTEGER ()) 0 14 ())) 0 () () () 0 0)
17 'nzt' '' 'nzt' 10 ((VARIABLE IN UNKNOWN-PROC UNKNOWN UNKNOWN 0 0
DUMMY) (INTEGER 4 0 0 INTEGER ()) 0 0 () () 0 () () () 0 0)
18 'zlevels' '' 'zlevels' 10 ((VARIABLE OUT UNKNOWN-PROC UNKNOWN UNKNOWN
0 0 DIMENSION DUMMY) (REAL 4 0 0 REAL ()) 0 0 () (1 0 EXPLICIT (
CONSTANT (INTEGER 4 0 0 INTEGER ()) 0 '1') (VARIABLE (INTEGER 4 0 0
INTEGER ()) 0 17 ())) 0 () () () 0 0)
19 'temp' '' 'temp' 10 ((VARIABLE OUT UNKNOWN-PROC UNKNOWN UNKNOWN 0 0
DIMENSION DUMMY) (REAL 4 0 0 REAL ()) 0 0 () (1 0 EXPLICIT (CONSTANT (
INTEGER 4 0 0 INTEGER ()) 0 '1') (VARIABLE (INTEGER 4 0 0 INTEGER ()) 0
17 ())) 0 () () () 0 0)
20 'iparlev' '' 'iparlev' 10 ((VARIABLE OUT UNKNOWN-PROC UNKNOWN UNKNOWN
0 0 DIMENSION DUMMY) (INTEGER 4 0 0 INTEGER ()) 0 0 () (1 0 EXPLICIT (
CONSTANT (INTEGER 4 0 0 INTEGER ()) 0 '1') (VARIABLE (INTEGER 4 0 0
INTEGER ()) 0 17 ())) 0 () () () 0 0)
92 'x' '' 'x' 91 ((VARIABLE UNKNOWN-INTENT UNKNOWN-PROC UNKNOWN UNKNOWN
0 0 DIMENSION DUMMY) (REAL 4 0 0 REAL ()) 0 0 () (1 0 ASSUMED_SIZE (
CONSTANT (INTEGER 4 0 0 INTEGER ()) 0 '1') ()) 0 () () () 0 0)
93 'y' '' 'y' 91 ((VARIABLE UNKNOWN-INTENT UNKNOWN-PROC UNKNOWN UNKNOWN
0 0 DIMENSION DUMMY) (REAL 4 0 0 REAL ()) 0 0 () (1 0 ASSUMED_SIZE (
CONSTANT (INTEGER 4 0 0 INTEGER ()) 0 '1') ()) 0 () () () 0 0)
94 'n' '' 'n' 91 ((VARIABLE UNKNOWN-INTENT UNKNOWN-PROC UNKNOWN UNKNOWN
0 0 DUMMY) (INTEGER 4 0 0 INTEGER ()) 0 0 () () 0 () () () 0 0)
95 'kflag' '' 'kflag' 91 ((VARIABLE UNKNOWN-INTENT UNKNOWN-PROC UNKNOWN
UNKNOWN 0 0 DUMMY) (INTEGER 4 0 0 INTEGER ()) 0 0 () () 0 () () () 0 0)
46 'nzt' '' 'nzt' 45 ((VARIABLE IN UNKNOWN-PROC UNKNOWN UNKNOWN 0 0
DUMMY) (INTEGER 4 0 0 INTEGER ()) 0 0 () () 0 () () () 0 0)
47 'zlevels' '' 'zlevels' 45 ((VARIABLE IN UNKNOWN-PROC UNKNOWN UNKNOWN
0 0 DIMENSION DUMMY) (REAL 4 0 0 REAL ()) 0 0 () (1 0 EXPLICIT (
CONSTANT (INTEGER 4 0 0 INTEGER ()) 0 '1') (VARIABLE (INTEGER 4 0 0
INTEGER ()) 0 46 ())) 0 () () () 0 0)
48 'temp' '' 'temp' 45 ((VARIABLE IN UNKNOWN-PROC UNKNOWN UNKNOWN 0 0
DIMENSION DUMMY) (REAL 4 0 0 REAL ()) 0 0 () (1 0 EXPLICIT (CONSTANT (
INTEGER 4 0 0 INTEGER ()) 0 '1') (VARIABLE (INTEGER 4 0 0 INTEGER ()) 0
46 ())) 0 () () () 0 0)
49 'raylcoef' '' 'raylcoef' 45 ((VARIABLE IN UNKNOWN-PROC UNKNOWN
UNKNOWN 0 0 DUMMY) (REAL 4 0 0 REAL ()) 0 0 () () 0 () () () 0 0)
50 'extrayl' '' 'extrayl' 45 ((VARIABLE OUT UNKNOWN-PROC UNKNOWN UNKNOWN
0 0 DIMENSION DUMMY) (REAL 4 0 0 REAL ()) 0 0 () (1 0 EXPLICIT (
CONSTANT (INTEGER 4 0 0 INTEGER ()) 0 '1') (VARIABLE (INTEGER 4 0 0
INTEGER ()) 0 46 ())) 0 () () () 0 0)
40 'nangles' '' 'nangles' 39 ((VARIABLE IN UNKNOWN-PROC UNKNOWN UNKNOWN
0 0 DUMMY) (INTEGER 4 0 0 INTEGER ()) 0 0 () () 0 () () () 0 0)
41 'nleg' '' 'nleg' 39 ((VARIABLE IN UNKNOWN-PROC UNKNOWN UNKNOWN 0 0
DUMMY) (INTEGER 4 0 0 INTEGER ()) 0 0 () () 0 () () () 0 0)
42 'legcoef' '' 'legcoef' 39 ((VARIABLE IN UNKNOWN-PROC UNKNOWN UNKNOWN
0 0 DIMENSION DUMMY) (REAL 4 0 0 REAL ()) 0 0 () (1 0 EXPLICIT (
CONSTANT (INTEGER 4 0 0 INTEGER ()) 0 '0') (VARIABLE (INTEGER 4 0 0
INTEGER ()) 0 41 ())) 0 () () () 0 0)
43 'phase' '' 'phase' 39 ((VARIABLE OUT UNKNOWN-PROC UNKNOWN UNKNOWN 0 0
DIMENSION DUMMY) (REAL 4 0 0 REAL ()) 0 0 () (1 0 EXPLICIT (CONSTANT (
INTEGER 4 0 0 INTEGER ()) 0 '1') (VARIABLE (INTEGER 4 0 0 INTEGER ()) 0
40 ())) 0 () () () 0 0)
23 'propfile' '' 'propfile' 22 ((VARIABLE IN UNKNOWN-PROC UNKNOWN
UNKNOWN 0 0 DUMMY) (CHARACTER 1 0 0 CHARACTER (())) 0 0 () () 0 () () ()
0 0)
24 'nx' '' 'nx' 22 ((VARIABLE IN UNKNOWN-PROC UNKNOWN UNKNOWN 0 0 DUMMY)
(INTEGER 4 0 0 INTEGER ()) 0 0 () () 0 () () () 0 0)
25 'ny' '' 'ny' 22 ((VARIABLE IN UNKNOWN-PROC UNKNOWN UNKNOWN 0 0 DUMMY)
(INTEGER 4 0 0 INTEGER ()) 0 0 () () 0 () () () 0 0)
26 'nzt' '' 'nzt' 22 ((VARIABLE IN UNKNOWN-PROC UNKNOWN UNKNOWN 0 0
DUMMY) (INTEGER 4 0 0 INTEGER ()) 0 0 () () 0 () () () 0 0)
27 'delx' '' 'delx' 22 ((VARIABLE IN UNKNOWN-PROC UNKNOWN UNKNOWN 0 0
DUMMY) (REAL 4 0 0 REAL ()) 0 0 () () 0 () () () 0 0)
28 'dely' '' 'dely' 22 ((VARIABLE IN UNKNOWN-PROC UNKNOWN UNKNOWN 0 0
DUMMY) (REAL 4 0 0 REAL ()) 0 0 () () 0 () () () 0 0)
29 'zlevels' '' 'zlevels' 22 ((VARIABLE IN UNKNOWN-PROC UNKNOWN UNKNOWN
0 0 DIMENSION DUMMY) (REAL 4 0 0 REAL ()) 0 0 () (1 0 EXPLICIT (
CONSTANT (INTEGER 4 0 0 INTEGER ()) 0 '1') (VARIABLE (INTEGER 4 0 0
INTEGER ()) 0 26 ())) 0 () () () 0 0)
30 'temp' '' 'temp' 22 ((VARIABLE IN UNKNOWN-PROC UNKNOWN UNKNOWN 0 0
DIMENSION DUMMY) (REAL 4 0 0 REAL ()) 0 0 () (1 0 EXPLICIT (CONSTANT (
INTEGER 4 0 0 INTEGER ()) 0 '1') (VARIABLE (INTEGER 4 0 0 INTEGER ()) 0
26 ())) 0 () () () 0 0)
31 'nphase' '' 'nphase' 22 ((VARIABLE IN UNKNOWN-PROC UNKNOWN UNKNOWN 0
0 DUMMY) (INTEGER 4 0 0 INTEGER ()) 0 0 () () 0 () () () 0 0)
32 'maxleg' '' 'maxleg' 22 ((VARIABLE IN UNKNOWN-PROC UNKNOWN UNKNOWN 0
0 DUMMY) (INTEGER 4 0 0 INTEGER ()) 0 0 () () 0 () () () 0 0)
33 'nleg' '' 'nleg' 22 ((VARIABLE IN UNKNOWN-PROC UNKNOWN UNKNOWN 0 0
DIMENSION DUMMY) (INTEGER 4 0 0 INTEGER ()) 0 0 () (1 0 EXPLICIT (
CONSTANT (INTEGER 4 0 0 INTEGER ()) 0 '0') (VARIABLE (INTEGER 4 0 0
INTEGER ()) 0 31 ())) 0 () () () 0 0)
34 'legcoef' '' 'legcoef' 22 ((VARIABLE IN UNKNOWN-PROC UNKNOWN UNKNOWN
0 0 DIMENSION DUMMY) (REAL 4 0 0 REAL ()) 0 0 () (2 0 EXPLICIT (
CONSTANT (INTEGER 4 0 0 INTEGER ()) 0 '0') (VARIABLE (INTEGER 4 0 0
INTEGER ()) 0 32 ()) (CONSTANT (INTEGER 4 0 0 INTEGER ()) 0 '0') (
VARIABLE (INTEGER 4 0 0 INTEGER ()) 0 31 ())) 0 () () () 0 0)
35 'extinct' '' 'extinct' 22 ((VARIABLE IN UNKNOWN-PROC UNKNOWN UNKNOWN
0 0 DIMENSION DUMMY) (REAL 4 0 0 REAL ()) 0 0 () (3 0 EXPLICIT (
CONSTANT (INTEGER 4 0 0 INTEGER ()) 0 '1') (VARIABLE (INTEGER 4 0 0
INTEGER ()) 0 26 ()) (CONSTANT (INTEGER 4 0 0 INTEGER ()) 0 '1') (
VARIABLE (INTEGER 4 0 0 INTEGER ()) 0 25 ()) (CONSTANT (INTEGER 4 0 0
INTEGER ()) 0 '1') (VARIABLE (INTEGER 4 0 0 INTEGER ()) 0 24 ())) 0 () ()
() 0 0)
36 'ssalb' '' 'ssalb' 22 ((VARIABLE IN UNKNOWN-PROC UNKNOWN UNKNOWN 0 0
DIMENSION DUMMY) (REAL 4 0 0 REAL ()) 0 0 () (3 0 EXPLICIT (CONSTANT (
INTEGER 4 0 0 INTEGER ()) 0 '1') (VARIABLE (INTEGER 4 0 0 INTEGER ()) 0
26 ()) (CONSTANT (INTEGER 4 0 0 INTEGER ()) 0 '1') (VARIABLE (INTEGER 4
0 0 INTEGER ()) 0 25 ()) (CONSTANT (INTEGER 4 0 0 INTEGER ()) 0 '1') (
VARIABLE (INTEGER 4 0 0 INTEGER ()) 0 24 ())) 0 () () () 0 0)
37 'iphase' '' 'iphase' 22 ((VARIABLE IN UNKNOWN-PROC UNKNOWN UNKNOWN 0
0 DIMENSION DUMMY) (INTEGER 4 0 0 INTEGER ()) 0 0 () (3 0 EXPLICIT (
CONSTANT (INTEGER 4 0 0 INTEGER ()) 0 '1') (VARIABLE (INTEGER 4 0 0
INTEGER ()) 0 26 ()) (CONSTANT (INTEGER 4 0 0 INTEGER ()) 0 '1') (
VARIABLE (INTEGER 4 0 0 INTEGER ()) 0 25 ()) (CONSTANT (INTEGER 4 0 0
INTEGER ()) 0 '1') (VARIABLE (INTEGER 4 0 0 INTEGER ()) 0 24 ())) 0 () ()
() 0 0)
)

('combine_prop' 0 2 'make_type_conv_table' 0 3 'organize_levels' 0 9
'output_properties' 0 21 'phasefunc_from_legendre' 0 38 'rayleigh_extinct'
0 44 'read_particle_file' 0 51 'read_particle_file_size' 0 67
'read_scat_table' 0 73 'read_scat_table_size' 0 83 'ssort' 0 90
'user_input' 0 96)
